Clustering tutorial, with solutions
…
SOLUTION

Read in the file plot expressio of gene 1 and 2:

cancer.data<-read_tsv("cancer_samples.txt")

## Parsed with column specification:
## cols(
##   Gene1.exp = col_double(),
##   Gene2.exp = col_double()
## )

cancer.data

## # A tibble: 94 x 2
##    Gene1.exp Gene2.exp
##        <dbl>     <dbl>
##  1      8.20    0.781 
##  2      9.16    9.54  
##  3      9.33   10.5   
##  4      9.50    0.968 
##  5      9.32    1.66  
##  6     19.7    17.8   
##  7     14.4     8.57  
##  8     10.7    -0.0736
##  9     10.9     1.53  
## 10      9.58   11.0   
## # ... with 84 more rows
…
more.patients

## # A tibble: 50 x 10
##    GeneID    pat1   pat2   pat3    pat4   pat5   pat6   pat7  pat8  pat9
##    <chr>    <dbl>  <dbl>  <dbl>   <dbl>  <dbl>  <dbl>  <dbl> <dbl> <dbl>
##  1 SCN1A  -2.68    6.09   1.30   5.96    3.08   0.243  1.45   3.25  2.08
##  2 CDK6    0.0809 -1.28   5.56  -2.53    1.52   4.35   5.12   6.92  4.63
##  3 TRPA1  -5.76   -3.77   0.470  7.94    1.48  -0.512 -1.73   1.58  1.20
##  4 TPMT    0.412  -1.43  -6.71   1.23   -0.216 -5.79  -8.22  -8.87 -8.19
##  5 E2F1    1.37    2.35   1.04  -5.73   -3.47   1.55   1.80   2.60  2.16
##  6 TYMP   NA      -2.45   4.74  10.1     0.119  4.05   5.40   3.00  4.94
##  7 GATA2  -0.478   2.45  -1.63   7.04    2.66  -2.06   0.124 -1.56 -1.68
##  8 XPC    -3.30   12.5    1.59   0.0102 -4.75   3.24   2.87   3.06  1.89
##  9 TNNT1   0.0150  0.717  2.06  -5.50   -2.14   2.18   2.55   1.84  2.25
## 10 CDKN1B -4.30   -4.20   1.54  -3.65    1.14   2.12   1.25   3.34  2.34
## # ... with 40 more rows
…
